Aprendizaje de máquina: proyecto final
…
Finalmente, separamos la muestra en entrenamiento y prueba (70% y 30%, respectivamente):

set.seed(124458)
entrena <- sample_frac(listing_mod, 0.7)
prueba <- listing_mod %>% dplyr::filter(!id %in% entrena$id) %>% select(-id)
entrena %<>% select(-id)

save(entrena, prueba, file = 'datos/bases_airbnb.RData')

entrena 

## # A tibble: 40,896 x 18
##    country price review_scores_r~ room_type property_type accommodates
##    <fct>   <dbl>            <dbl> <fct>     <fct>         <fct>       
##  1 France   4.32             4.61 Entire h~ Apartment     2           
##  2 France   4.23             4.57 Entire h~ Apartment     4           
##  3 Italy    3.87             4.55 Private/~ Condominium   3           
##  4 France   3.69             4.61 Private/~ Apartment     2           
##  5 France   3.91             4.61 Entire h~ Loft          2           
##  6 Italy    3.89             4.52 Entire h~ Loft          2           
##  7 France   4.79             4.57 Entire h~ Apartment     4           
##  8 France   4.13             4.54 Entire h~ Apartment     2           
##  9 Italy    3.99             4.51 Private/~ Apartment     2           
## 10 France   3.61             4.58 Private/~ Apartment     2           
## # ... with 40,886 more rows, and 12 more variables: bathrooms <fct>,
## #   beds <fct>, guests_included <fct>, bed_type <fct>,
## #   reviews_per_month <dbl>, cleaning_fee <fct>, security_deposit <fct>,
## #   zipcode <fct>, bedrooms <fct>, latitude <dbl>, longitude <dbl>,
## #   price_gr <fct>
…
